 2094  mkcd git_sample_project
 2095  git init 
 2096  touch a.txt b.txt c.txt
 2097  echo "this is a" > a.txt 
 2098  echo "this is b" > b.txt 
 2099  echo "this is c" > c.txt 
 2100  git status 
 2101  git add a.txt b.txt 
 2102  git commit a.txt b.txt -m "Add a.txt and b.txt"
 2103  git status 
 2104  git log --oneline 
 2105  ls
 2106  git add c.txt 
 2107  git commit c.txt -m "Add c.txt"
 2108  git status 
 2109  git log --oneline 
 2110  git remote add origin https://gitlab.com/gitmblue/git_drill_part_1
 2111  git push -u origin master
 2112  cd ..
 2113  mkcd git_sample_project_2
 2114  ls
 2115  git clone https://gitlab.com/gitmblue/git_drill_part_1.git
 2116  cd 
 2117  cd dsp/git/git_sample_project_2/
 2118  cd git_drill_part_1/
 2119  ls
 2120  echo "this is d" > d.txt
 2121  git add d.txt 
 2122  git status 
 2123  git commit d.txt -m "Add d.txt"
 2124  git status 
 2125  git log 
 2126  git push
 2127  cd ..
 2128  cd git_sample_project
 2129  ls
 2130  git pull 
 2131  git log --oneline 

